[
   
    {
        "cluster_name":"bridge",
        "provider":"azure",
        "node_number":2,
        "master_node_number" : 1,
        "worker_node_number" : 1,
        "etcd_node_number" : 0,
        "ips" : [ 
            "1.1.1.1", 
            "1.1.1.2" 
            
        ],
        "dns" : [ 
            "rke1.dns.com", 
            "rke2.dns.com" 
            
        ],
        "privateIps" : [ 
            "1.1.1.1", 
            "2.1.1.2"
        ],
        "username" : "alaa",
        "password" : "U2FsdGVkX1+bZiUunOVcp2SQ28xrA8UCNpcOYSmKBAI="

    },
    {
        "cluster_name":"demo",
        "provider":"azure",
        "node_number":2,
        "master_node_number" : 1,
        "worker_node_number" : 1,
        "etcd_node_number" : 0,
        "ips" : [ 
            "40.83.254.248", 
            "40.83.255.46"
            
        ],
        "dns" : [ 
            "dns-demo-1.westus.cloudapp.azure.com", 
            "dns-demo-2.westus.cloudapp.azure.com"
        ],
        "privateIps" : [ 
            "10.0.2.4", 
            "10.0.2.5"
        ],
        "username" : "alaahamdi"
    }
]
